…
    ## See spec(...) for full column specifications.

``` r
data
```

    ## # A tibble: 81,525 x 23
    ##       X1 name  team  game_year game_week rush_att rush_yds rush_avg
    ##    <int> <chr> <chr>     <int>     <int>    <int>    <int>    <dbl>
    ##  1     1 Duce… PHI        2000         1       26      201      7.7
    ##  2     2 Lama… MIA        2000         1       27      145      5.4
    ##  3     3 Tiki… NYG        2000         1       13      144     11.1
    ##  4     4 Step… WAS        2000         1       23      133      5.8
    ##  5     5 Edge… IND        2000         1       28      124      4.4
    ##  6     6 Prie… BAL        2000         1       27      119      4.4
    ##  7     7 Curt… NYJ        2000         1       30      110      3.7
    ##  8     8 Robe… MIN        2000         1       14      109      7.8
    ##  9     9 Tim … CAR        2000         1       15       88      5.9
    ## 10    10 Cade… CHI        2000         1       10       87      8.7
    ## # ... with 81,515 more rows, and 15 more variables: rush_tds <int>,
    ## #   rush_fumbles <int>, rec <int>, rec_yds <int>, rec_avg <dbl>,
    ## #   rec_tds <int>, rec_fumbles <int>, pass_att <int>, pass_yds <int>,
    ## #   pass_tds <int>, int <int>, sck <int>, pass_fumbles <int>, rate <dbl>,
    ## #   position <chr>
…
``` r
sum_team_year <- data %>%
  select(name, team, game_year, game_week, rush_fumbles, rec_fumbles, pass_fumbles) %>%
  mutate_if(is.numeric, funs(ifelse(is.na(.), 0, .))) %>%
  group_by(team, game_year) %>%
  summarise(rush_fum = sum(rush_fumbles), rec_fum = sum(rec_fumbles), pass_fum = sum(pass_fumbles))

sum_team_year
```

    ## # A tibble: 548 x 5
    ## # Groups:   team [?]
    ##    team  game_year rush_fum rec_fum pass_fum
    ##    <chr>     <int>    <dbl>   <dbl>    <dbl>
    ##  1 ARI        2000       11       5        5
    ##  2 ARI        2001        6       8        3
    ##  3 ARI        2002       10       6        4
    ##  4 ARI        2003        5       6        3
    ##  5 ARI        2004        8       3        7
    ##  6 ARI        2005        0       0        0
    ##  7 ARI        2006        0       0        0
    ##  8 ARI        2007        0       1        1
    ##  9 ARI        2008        0       0        0
    ## 10 ARI        2009       12      10        6
    ## # ... with 538 more rows
…
