…
To calculate the percent for each urbanicity in each year, I’m going to
bind the two data frames together. I used `left_join()` do add the total
jail population to each row for the appropriate year. I used `mutate()`
to calculate the percent for each urbanicity in each year. I used select
to keep only the columns I’ll need for the plot.

``` r
fin_df <- left_join(subset_pop_df, total_pop_df, by = "year") %>%
  mutate(pct = subsetJailPop/totalJailPop) %>%
  select(urbanicity, year, pct)

fin_df
```

    ## # A tibble: 128 x 3
    ## # Groups:   urbanicity [4]
    ##    urbanicity  year    pct
    ##    <chr>      <int>  <dbl>
    ##  1 rural       1983 0.0842
    ##  2 rural       1984 0.107 
    ##  3 rural       1985 0.111 
    ##  4 rural       1986 0.114 
    ##  5 rural       1987 0.118 
    ##  6 rural       1988 0.0947
    ##  7 rural       1989 0.0893
    ##  8 rural       1990 0.0850
    ##  9 rural       1991 0.0823
    ## 10 rural       1992 0.0789
    ## # ... with 118 more rows
…
