…
``` r
user_df <- data %>%
  select(screen_name, country) %>%
  distinct() %>%
  drop_na()

user_df
```

    ## # A tibble: 2,280 x 2
    ##    screen_name   country       
    ##    <chr>         <chr>         
    ##  1 tangming2005  United States 
    ##  2 Ammer_B       United Kingdom
    ##  3 Ammer_B       Benin         
    ##  4 Ammer_B       Belgium       
    ##  5 Ammer_B       Malta         
    ##  6 Ammer_B       Sudan         
    ##  7 Ammer_B       Greece        
    ##  8 Ver0nesiFabi0 United Kingdom
    ##  9 monkmanmh     Canada        
    ## 10 marskar       United States 
    ## # ... with 2,270 more rows
…
Now let’s get the counts for each country. First, we group the data
frame by country using `group_by()`. Then we use `summarise()` to get
the counts. Then, we’ll order the data frame by descending count.

``` r
count_df <- user_df %>%
  group_by(country) %>%
  summarise(count = n()) %>%
  arrange(-count)

count_df
```

    ## # A tibble: 106 x 2
    ##    country         count
    ##    <chr>           <int>
    ##  1 United States     923
    ##  2 United Kingdom    251
    ##  3 Canada            122
    ##  4 Australia          98
    ##  5 Germany            78
    ##  6 Spain              69
    ##  7 France             51
    ##  8 The Netherlands    37
    ##  9 Switzerland        35
    ## 10 Ireland            34
    ## # ... with 96 more rows
…
